The R interface to the cBioPortal API Data Service — cBioPortal • cBioPortalData
…
    Genes

* getDataByGenes - Download data for a number of genes within
    `molecularProfileId` indicators, optionally a `sampleListId` can be
    provided.

    Examples

cbio <- cBioPortal()

getStudies(api = cbio)

#> # A tibble: 313 x 13
#>    name     shortName  description    publicStudy pmid    citation groups status
#>    <chr>    <chr>      <chr>          <lgl>       <chr>   <chr>    <chr>   <int>
#>  1 Pan-Lun… NSCLC (TC… "Whole-exome … TRUE        271587… TCGA, N… ""          0
#>  2 Gliobla… GBM (TCGA) "TCGA Gliobla… TRUE        NA      NA       "PUBL…      0
#>  3 Head an… Head & ne… "TCGA Head an… TRUE        NA      NA       "PUBL…      0
#>  4 Breast … Breast (T… "Whole-exome … TRUE        264514… TCGA, C… "PUBL…      0
#>  5 Ovarian… Ovarian (… "Whole exome … TRUE        217203… TCGA, N… "PUBL…      0
#>  6 Uterine… Uterine (… "Whole exome … TRUE        236363… TCGA, N… "PUBL…      0
#>  7 Bladder… BLCA (TCG… "Whole-exome … TRUE        289887… Roberts… "PUBL…      0
#>  8 Head an… Head & ne… "Head and Nec… TRUE        296250… TCGA, C… "PUBL…      0
#>  9 Lung Ad… Lung aden… "Lung Adenoca… TRUE        296250… TCGA, C… "PUBL…      0
#> 10 Lung Sq… Lung squ … "Lung Squamou… TRUE        296250… TCGA, C… "PUBL…      0
#> # … with 303 more rows, and 5 more variables: importDate <chr>,
#> #   allSampleCount <int>, studyId <chr>, cancerTypeId <chr>,
#> #   referenceGenome <chr>
…
## obtain clinical data
acc_clin <- clinicalData(api = cbio, studyId = "acc_tcga")
acc_clin

#> # A tibble: 92 x 84
#>    patientId  AGE   AJCC_PATHOLOGIC_TU… ATYPICAL_MITOTIC_FI… CAPSULAR_INVASION  
#>    <chr>      <chr> <chr>               <chr>                <chr>              
#>  1 TCGA-OR-A… 58    Stage II            Atypical Mitotic Fi… Invasion of Tumor …
#>  2 TCGA-OR-A… 44    Stage IV            Atypical Mitotic Fi… Invasion of Tumor …
#>  3 TCGA-OR-A… 23    Stage III           Atypical Mitotic Fi… Invasion of Tumor …
#>  4 TCGA-OR-A… 23    Stage IV            Atypical Mitotic Fi… Invasion of Tumor …
#>  5 TCGA-OR-A… 30    Stage III           Atypical Mitotic Fi… Invasion of Tumor …
#>  6 TCGA-OR-A… 29    Stage II            Atypical Mitotic Fi… Invasion of Tumor …
#>  7 TCGA-OR-A… 30    Stage III           Atypical Mitotic Fi… Invasion of Tumor …
#>  8 TCGA-OR-A… 66    Stage III           Atypical Mitotic Fi… Invasion of Tumor …
#>  9 TCGA-OR-A… 22    Stage II            Atypical Mitotic Fi… Invasion of Tumor …
#> 10 TCGA-OR-A… 53    Stage IV            Atypical Mitotic Fi… Invasion of Tumor …
#> # … with 82 more rows, and 79 more variables: CLIN_M_STAGE <chr>,
#> #   CT_SCAN_PREOP_RESULTS <chr>,
#> #   CYTOPLASM_PRESENCE_LESS_THAN_EQUAL_25_PERCENT <chr>,
#> #   DAYS_TO_INITIAL_PATHOLOGIC_DIAGNOSIS <chr>, DFS_MONTHS <chr>,
#> #   DFS_STATUS <chr>, DIFFUSE_ARCHITECTURE <chr>, ETHNICITY <chr>,
#> #   FORM_COMPLETION_DATE <chr>, HISTOLOGICAL_DIAGNOSIS <chr>,
#> #   HISTORY_ADRENAL_HORMONE_EXCESS <chr>,
#> #   HISTORY_BASIS_ADRENAL_HORMONE_DX <chr>, HISTORY_NEOADJUVANT_TRTYN <chr>,
#> #   HISTORY_OTHER_MALIGNANCY <chr>, ICD_10 <chr>, ICD_O_3_HISTOLOGY <chr>,
…
genePanels(cbio)

#> # A tibble: 52 x 2
#>    description                                               genePanelId        
#>    <chr>                                                     <chr>              
#>  1 Targeted (27 cancer genes) sequencing of adenoid cystic … ACYC_FMI_27        
#>  2 Targeted panel of 8 genes.                                AmpliSeq           
#>  3 ARCHER-SOLID Gene Panel (62 genes)                        ARCHER-SOLID-CV1   
#>  4 Targeted sequencing of various tumor types via bait v3.   bait_v3            
#>  5 Targeted sequencing of various tumor types via bait v4.   bait_v4            
#>  6 Targeted sequencing of various tumor types via bait v5.   bait_v5            
#>  7 Foundation Medicine T5a gene panel (323 genes)            FMI-T5a            
#>  8 Foundation Medicine T7 gene panel (429 genes)             FMI-T7             
#>  9 Foundation Medicine T5 gene panel (326 genes)             glioma_mskcc_2019_…
#> 10 Foundation Medicine T7 gene panel (434 genes)             glioma_mskcc_2019_…
#> # … with 42 more rows
…
samplesInSampleLists(
    api = cbio,
    sampleListIds = c("acc_tcga_rppa", "acc_tcga_cnaseq")
)

#> CharacterList of length 2
#> [["acc_tcga_cnaseq"]] TCGA-OR-A5J1-01 TCGA-OR-A5J2-01 ... TCGA-PK-A5HC-01
#> [["acc_tcga_rppa"]] TCGA-OR-A5J2-01 TCGA-OR-A5J3-01 ... TCGA-PK-A5HA-01

genePanels(api = cbio)

#> # A tibble: 52 x 2
#>    description                                               genePanelId        
#>    <chr>                                                     <chr>              
#>  1 Targeted (27 cancer genes) sequencing of adenoid cystic … ACYC_FMI_27        
#>  2 Targeted panel of 8 genes.                                AmpliSeq           
#>  3 ARCHER-SOLID Gene Panel (62 genes)                        ARCHER-SOLID-CV1   
#>  4 Targeted sequencing of various tumor types via bait v3.   bait_v3            
#>  5 Targeted sequencing of various tumor types via bait v4.   bait_v4            
#>  6 Targeted sequencing of various tumor types via bait v5.   bait_v5            
#>  7 Foundation Medicine T5a gene panel (323 genes)            FMI-T5a            
#>  8 Foundation Medicine T7 gene panel (429 genes)             FMI-T7             
#>  9 Foundation Medicine T5 gene panel (326 genes)             glioma_mskcc_2019_…
#> 10 Foundation Medicine T7 gene panel (434 genes)             glioma_mskcc_2019_…
#> # … with 42 more rows

getGenePanel(api = cbio, genePanelId = "IMPACT341")

#> # A tibble: 341 x 2
#>    entrezGeneId hugoGeneSymbol
#>           <int> <chr>         
#>  1           25 ABL1          
#>  2        84142 ABRAXAS1      
#>  3          207 AKT1          
#>  4          208 AKT2          
#>  5        10000 AKT3          
#>  6          238 ALK           
#>  7          242 ALOX12B       
#>  8       139285 AMER1         
#>  9          324 APC           
#> 10          367 AR            
#> # … with 331 more rows

getDataByGenePanel(cbio, studyId = "acc_tcga", genePanelId = "IMPACT341",
   molecularProfileId = "acc_tcga_rppa", sampleListId = "acc_tcga_rppa")

#> Warning: 'getDataByGenePanel' is deprecated.
#> Use 'getDataByGenes' instead.
#> See help("Deprecated")
#> $acc_tcga_rppa
#> # A tibble: 2,622 x 9
#>    uniqueSampleKey    uniquePatientKey   entrezGeneId molecularProfil… sampleId 
#>    <chr>              <chr>                     <int> <chr>            <chr>    
#>  1 VENHQS1PUi1BNUoyL… VENHQS1PUi1BNUoyO…         5728 acc_tcga_rppa    TCGA-OR-…
#>  2 VENHQS1PUi1BNUoyL… VENHQS1PUi1BNUoyO…          595 acc_tcga_rppa    TCGA-OR-…
#>  3 VENHQS1PUi1BNUoyL… VENHQS1PUi1BNUoyO…          596 acc_tcga_rppa    TCGA-OR-…
#>  4 VENHQS1PUi1BNUoyL… VENHQS1PUi1BNUoyO…        10413 acc_tcga_rppa    TCGA-OR-…
#>  5 VENHQS1PUi1BNUoyL… VENHQS1PUi1BNUoyO…         3791 acc_tcga_rppa    TCGA-OR-…
#>  6 VENHQS1PUi1BNUoyL… VENHQS1PUi1BNUoyO…         7157 acc_tcga_rppa    TCGA-OR-…
#>  7 VENHQS1PUi1BNUoyL… VENHQS1PUi1BNUoyO…          207 acc_tcga_rppa    TCGA-OR-…
#>  8 VENHQS1PUi1BNUoyL… VENHQS1PUi1BNUoyO…          208 acc_tcga_rppa    TCGA-OR-…
#>  9 VENHQS1PUi1BNUoyL… VENHQS1PUi1BNUoyO…        57521 acc_tcga_rppa    TCGA-OR-…
#> 10 VENHQS1PUi1BNUoyL… VENHQS1PUi1BNUoyO…         2064 acc_tcga_rppa    TCGA-OR-…
#> # … with 2,612 more rows, and 4 more variables: patientId <chr>, studyId <chr>,
#> #   value <dbl>, hugoGeneSymbol <chr>
…
