Download data from the cBioPortal API — cBioPortalData • cBioPortalData
…
    See also

    cBioDataPack, removeDataCache

    Examples

cbio <- cBioPortal()

samps <- samplesInSampleLists(cbio, "acc_tcga_rppa")[[1]]

getGenePanelMolecular(
    cbio, molecularProfileIds = c("acc_tcga_rppa", "acc_tcga_linear_CNA"),
    samps
)
#> # A tibble: 92 × 7
#>    uniqueSampleKey               uniqu…¹ molec…² sampl…³ patie…⁴ studyId profi…⁵
#>    <chr>                         <chr>   <chr>   <chr>   <chr>   <chr>   <lgl>  
#>  1 VENHQS1PUi1BNUoyLTAxOmFjY190… VENHQS… acc_tc… TCGA-O… TCGA-O… acc_tc… TRUE   
#>  2 VENHQS1PUi1BNUozLTAxOmFjY190… VENHQS… acc_tc… TCGA-O… TCGA-O… acc_tc… TRUE   
#>  3 VENHQS1PUi1BNUo2LTAxOmFjY190… VENHQS… acc_tc… TCGA-O… TCGA-O… acc_tc… TRUE   
#>  4 VENHQS1PUi1BNUo3LTAxOmFjY190… VENHQS… acc_tc… TCGA-O… TCGA-O… acc_tc… TRUE   
#>  5 VENHQS1PUi1BNUo4LTAxOmFjY190… VENHQS… acc_tc… TCGA-O… TCGA-O… acc_tc… TRUE   
#>  6 VENHQS1PUi1BNUo5LTAxOmFjY190… VENHQS… acc_tc… TCGA-O… TCGA-O… acc_tc… TRUE   
#>  7 VENHQS1PUi1BNUpBLTAxOmFjY190… VENHQS… acc_tc… TCGA-O… TCGA-O… acc_tc… TRUE   
#>  8 VENHQS1PUi1BNUpQLTAxOmFjY190… VENHQS… acc_tc… TCGA-O… TCGA-O… acc_tc… TRUE   
#>  9 VENHQS1PUi1BNUpSLTAxOmFjY190… VENHQS… acc_tc… TCGA-O… TCGA-O… acc_tc… TRUE   
#> 10 VENHQS1PUi1BNUpTLTAxOmFjY190… VENHQS… acc_tc… TCGA-O… TCGA-O… acc_tc… TRUE   
#> # … with 82 more rows, and abbreviated variable names ¹​uniquePatientKey,
#> #   ²​molecularProfileId, ³​sampleId, ⁴​patientId, ⁵​profiled
…
