A class for representing the cBioPortal API protocol — cBioPortal-class • cBioPortalData
…
    See also

    cBioPortal, Service

    Examples

cBioPortal()

#> service: cBioPortal
#> tags(); use cbioportal$<tab completion>:
#> # A tibble: 61 x 3
#>    tag           operation                  summary                             
#>    <chr>         <chr>                      <chr>                               
#>  1 Cancer Types  getAllCancerTypesUsingGET  Get all cancer types                
#>  2 Cancer Types  getCancerTypeUsingGET      Get a cancer type                   
#>  3 Clinical Att… fetchClinicalAttributesUs… Fetch clinical attributes           
#>  4 Clinical Att… getAllClinicalAttributesI… Get all clinical attributes in the …
#>  5 Clinical Att… getAllClinicalAttributesU… Get all clinical attributes         
#>  6 Clinical Att… getClinicalAttributeInStu… Get specified clinical attribute    
#>  7 Clinical Data fetchAllClinicalDataInStu… Fetch clinical data by patient IDs …
#>  8 Clinical Data fetchClinicalDataUsingPOST Fetch clinical data by patient IDs …
#>  9 Clinical Data getAllClinicalDataInStudy… Get all clinical data in a study    
#> 10 Clinical Data getAllClinicalDataOfPatie… Get all clinical data of a patient …
#> # … with 51 more rows
…
