cBioPortalData: API Reference Guide • cBiocPortalData
…
Introduction

This vignette is for users / developers who would like to learn more about the available in cBioPortalData and possibly hit other endpoints in the cBioPortal API implementation. The functionality demonstrated here is used internally by the package to create integrative representations of study datasets.

API representation

Obtaining the cBioPortal API representation object

(cbio <- cBioPortal())

## service: cBioPortal
## tags(); use cbioportal$<tab completion>:
## # A tibble: 73 x 3
##    tag          operation               summary                                 
##    <chr>        <chr>                   <chr>                                   
##  1 Cancer Types getAllCancerTypesUsing… Get all cancer types                    
##  2 Cancer Types getCancerTypeUsingGET   Get a cancer type                       
##  3 Clinical At… fetchClinicalAttribute… Fetch clinical attributes               
##  4 Clinical At… getAllClinicalAttribut… Get all clinical attributes in the spec…
##  5 Clinical At… getAllClinicalAttribut… Get all clinical attributes             
##  6 Clinical At… getClinicalAttributeCo… Get counts for clinical attributes acco…
##  7 Clinical At… getClinicalAttributeIn… Get specified clinical attribute        
##  8 Clinical Da… fetchAllClinicalDataIn… Fetch clinical data by patient IDs or s…
##  9 Clinical Da… fetchClinicalDataUsing… Fetch clinical data by patient IDs or s…
## 10 Clinical Da… getAllClinicalDataInSt… Get all clinical data in a study        
## # … with 63 more rows
## tag values:
##   Cancer Types, Clinical Attributes, Clinical Data, Clinical Events,
##   Copy Number Segments, Discrete Copy Number Alterations, Gene Panels,
##   Generic Assays, Genes, Molecular Data, Molecular Profiles, Mutations,
##   Patients, Reference Genome Genes, Resource Data, Resource
##   Definitions, Sample Lists, Samples, Structural Variants, Studies,
##   Treatments
## schemas():
##   AlleleSpecificCopyNumber, AndedPatientTreatmentFilters,
##   AndedSampleTreatmentFilters, CancerStudy, CancerStudyTags
##   # ... with 66 more elements

Operations

Check available tags, operations, and descriptions as a tibble:

tags(cbio)

## # A tibble: 73 x 3
##    tag          operation               summary                                 
##    <chr>        <chr>                   <chr>                                   
##  1 Cancer Types getAllCancerTypesUsing… Get all cancer types                    
##  2 Cancer Types getCancerTypeUsingGET   Get a cancer type                       
##  3 Clinical At… fetchClinicalAttribute… Fetch clinical attributes               
##  4 Clinical At… getAllClinicalAttribut… Get all clinical attributes in the spec…
##  5 Clinical At… getAllClinicalAttribut… Get all clinical attributes             
##  6 Clinical At… getClinicalAttributeCo… Get counts for clinical attributes acco…
##  7 Clinical At… getClinicalAttributeIn… Get specified clinical attribute        
##  8 Clinical Da… fetchAllClinicalDataIn… Fetch clinical data by patient IDs or s…
##  9 Clinical Da… fetchClinicalDataUsing… Fetch clinical data by patient IDs or s…
## 10 Clinical Da… getAllClinicalDataInSt… Get all clinical data in a study        
## # … with 63 more rows
…
Studies

Get the list of studies available:

getStudies(cbio)

## # A tibble: 290 x 13
##    name  shortName description publicStudy pmid  citation groups status
##    <chr> <chr>     <chr>       <lgl>       <chr> <chr>    <chr>   <int>
##  1 Chol… Cholangi… Exome sequ… TRUE        2418… Chan-on… "PUBL…      0
##  2 Esop… ESCC (UC… Whole exom… TRUE        2468… Lin et … "PUBL…      0
##  3 Oral… Head & n… Comprehens… TRUE        2361… Pickeri… ""          0
##  4 Hepa… HCC (Ins… Whole-exom… TRUE        2582… Schulze… "PUBL…      0
##  5 Uvea… UM (QIMR) Whole-geno… TRUE        2668… Johanss… "PUBL…      0
##  6 Neur… NBL (AMC) Whole geno… TRUE        2236… Molenaa… "PUBL…      0
##  7 Naso… NPC (Sin… Whole exom… TRUE        2495… Lin et … "PUBL…      0
##  8 Thym… TET (NCI) Whole exom… TRUE        2497… Petrini… "PUBL…      0
##  9 Neur… NBL (Col… Whole-geno… TRUE        2646… Peifer … ""          0
## 10 Myel… MDS (Tok… Whole exom… TRUE        2190… Yoshida… ""          0
## # … with 280 more rows, and 5 more variables: importDate <chr>,
## #   allSampleCount <int>, studyId <chr>, cancerTypeId <chr>,
## #   referenceGenome <chr>

Clinical Data

Obtain the clinical data for a particular study:

clinicalData(cbio, "acc_tcga")

## # A tibble: 92 x 20
##    uniqueSampleKey uniquePatientKey sampleId patientId studyId CANCER_TYPE
##    <chr>           <chr>            <chr>    <chr>     <chr>   <chr>      
##  1 VENHQS1PUi1BNU… VENHQS1PUi1BNUo… TCGA-OR… TCGA-OR-… acc_tc… Adrenocort…
##  2 VENHQS1PUi1BNU… VENHQS1PUi1BNUo… TCGA-OR… TCGA-OR-… acc_tc… Adrenocort…
##  3 VENHQS1PUi1BNU… VENHQS1PUi1BNUo… TCGA-OR… TCGA-OR-… acc_tc… Adrenocort…
##  4 VENHQS1PUi1BNU… VENHQS1PUi1BNUo… TCGA-OR… TCGA-OR-… acc_tc… Adrenocort…
##  5 VENHQS1PUi1BNU… VENHQS1PUi1BNUo… TCGA-OR… TCGA-OR-… acc_tc… Adrenocort…
##  6 VENHQS1PUi1BNU… VENHQS1PUi1BNUo… TCGA-OR… TCGA-OR-… acc_tc… Adrenocort…
##  7 VENHQS1PUi1BNU… VENHQS1PUi1BNUo… TCGA-OR… TCGA-OR-… acc_tc… Adrenocort…
##  8 VENHQS1PUi1BNU… VENHQS1PUi1BNUo… TCGA-OR… TCGA-OR-… acc_tc… Adrenocort…
##  9 VENHQS1PUi1BNU… VENHQS1PUi1BNUo… TCGA-OR… TCGA-OR-… acc_tc… Adrenocort…
## 10 VENHQS1PUi1BNU… VENHQS1PUi1BNUp… TCGA-OR… TCGA-OR-… acc_tc… Adrenocort…
## # … with 82 more rows, and 14 more variables: CANCER_TYPE_DETAILED <chr>,
## #   DAYS_TO_COLLECTION <chr>, FRACTION_GENOME_ALTERED <chr>, IS_FFPE <chr>,
## #   MUTATION_COUNT <chr>, OCT_EMBEDDED <chr>, ONCOTREE_CODE <chr>,
## #   OTHER_SAMPLE_ID <chr>, PATHOLOGY_REPORT_FILE_NAME <chr>,
## #   PATHOLOGY_REPORT_UUID <chr>, SAMPLE_INITIAL_WEIGHT <chr>,
## #   SAMPLE_TYPE <chr>, SAMPLE_TYPE_ID <chr>, VIAL_NUMBER <chr>
…
Genes

All available genes

A list of all the genes provided by the API service including hugo symbols, and entrez gene IDs can be obtained by using the geneTable function:

geneTable(cbio)

## # A tibble: 1,000 x 3
##    entrezGeneId hugoGeneSymbol type          
##           <int> <chr>          <chr>         
##  1       -95835 IVNS1ABP_PT330 phosphoprotein
##  2       -95834 IVNS1ABP_PT328 phosphoprotein
##  3       -95833 IVNS1ABP_PS329 phosphoprotein
##  4       -95832 IVNS1ABP_PS277 phosphoprotein
##  5       -95831 MORC2_PS785    phosphoprotein
##  6       -95830 MORC2_PS779    phosphoprotein
##  7       -95829 MORC2_PS777    phosphoprotein
##  8       -95828 MORC2_PS743    phosphoprotein
##  9       -95827 MORC2_PS739    phosphoprotein
## 10       -95826 MORC2_PS725    phosphoprotein
## # … with 990 more rows

Gene Panels

genePanels(cbio)

## # A tibble: 47 x 2
##    description                                                       genePanelId
##    <chr>                                                             <chr>      
##  1 Targeted (341 cancer genes) sequencing of various tumor types vi… IMPACT341  
##  2 Targeted (410 cancer genes) sequencing of various tumor types vi… IMPACT410  
##  3 Targeted (468 cancer genes) sequencing of various tumor types vi… IMPACT468  
##  4 Targeted sequencing of urcc tumor via MSK-IMPACT.                 IMPACT     
##  5 Targeted (300 cancer genes) sequencing of bladder urothelial car… IMPACT300  
##  6 Targeted deep sequencing (TDS) of 1202 genes on Illumina HiSeq20… UCLA_1202  
##  7 Targeted sequencing of urcc tumor via MSK-IMPACT.                 IMPACT230  
##  8 Targeted (27 cancer genes) sequencing of adenoid cystic carcinom… ACYC_FMI_27
##  9 Targeted (173 cancer genes) sequencing of breast cancers on Illu… METABRIC_1…
## 10 Targeted sequencing of 504 cancer-associated genes on Illumina H… DFCI_504   
## # … with 37 more rows

getGenePanel(cbio, "IMPACT341")

## # A tibble: 341 x 2
##    entrezGeneId hugoGeneSymbol
##           <int> <chr>         
##  1           25 ABL1          
##  2        84142 ABRAXAS1      
##  3          207 AKT1          
##  4          208 AKT2          
##  5        10000 AKT3          
##  6          238 ALK           
##  7          242 ALOX12B       
##  8       139285 AMER1         
##  9          324 APC           
## 10          367 AR            
## # … with 331 more rows

Molecular Gene Panels

genePanelMolecular

gprppa <- genePanelMolecular(cbio,
    molecularProfileId = "acc_tcga_rppa",
    sampleListId = "acc_tcga_all")
gprppa

## # A tibble: 92 x 7
##    uniqueSampleKey uniquePatientKey molecularProfil… sampleId patientId studyId
##    <chr>           <chr>            <chr>            <chr>    <chr>     <chr>  
##  1 VENHQS1PUi1BNU… VENHQS1PUi1BNUo… acc_tcga_rppa    TCGA-OR… TCGA-OR-… acc_tc…
##  2 VENHQS1PUi1BNU… VENHQS1PUi1BNUo… acc_tcga_rppa    TCGA-OR… TCGA-OR-… acc_tc…
##  3 VENHQS1PUi1BNU… VENHQS1PUi1BNUo… acc_tcga_rppa    TCGA-OR… TCGA-OR-… acc_tc…
##  4 VENHQS1PUi1BNU… VENHQS1PUi1BNUo… acc_tcga_rppa    TCGA-OR… TCGA-OR-… acc_tc…
##  5 VENHQS1PUi1BNU… VENHQS1PUi1BNUo… acc_tcga_rppa    TCGA-OR… TCGA-OR-… acc_tc…
##  6 VENHQS1PUi1BNU… VENHQS1PUi1BNUo… acc_tcga_rppa    TCGA-OR… TCGA-OR-… acc_tc…
##  7 VENHQS1PUi1BNU… VENHQS1PUi1BNUo… acc_tcga_rppa    TCGA-OR… TCGA-OR-… acc_tc…
##  8 VENHQS1PUi1BNU… VENHQS1PUi1BNUo… acc_tcga_rppa    TCGA-OR… TCGA-OR-… acc_tc…
##  9 VENHQS1PUi1BNU… VENHQS1PUi1BNUo… acc_tcga_rppa    TCGA-OR… TCGA-OR-… acc_tc…
## 10 VENHQS1PUi1BNU… VENHQS1PUi1BNUp… acc_tcga_rppa    TCGA-OR… TCGA-OR-… acc_tc…
## # … with 82 more rows, and 1 more variable: profiled <lgl>

getGenePanelMolecular

getGenePanelMolecular(cbio,
    molecularProfileIds = c("acc_tcga_rppa", "acc_tcga_gistic"),
    sampleIds = allSamples(cbio, "acc_tcga")$sampleId
)

## # A tibble: 184 x 7
##    uniqueSampleKey uniquePatientKey molecularProfil… sampleId patientId studyId
##    <chr>           <chr>            <chr>            <chr>    <chr>     <chr>  
##  1 VENHQS1PUi1BNU… VENHQS1PUi1BNUo… acc_tcga_gistic  TCGA-OR… TCGA-OR-… acc_tc…
##  2 VENHQS1PUi1BNU… VENHQS1PUi1BNUo… acc_tcga_gistic  TCGA-OR… TCGA-OR-… acc_tc…
##  3 VENHQS1PUi1BNU… VENHQS1PUi1BNUo… acc_tcga_gistic  TCGA-OR… TCGA-OR-… acc_tc…
##  4 VENHQS1PUi1BNU… VENHQS1PUi1BNUo… acc_tcga_gistic  TCGA-OR… TCGA-OR-… acc_tc…
##  5 VENHQS1PUi1BNU… VENHQS1PUi1BNUo… acc_tcga_gistic  TCGA-OR… TCGA-OR-… acc_tc…
##  6 VENHQS1PUi1BNU… VENHQS1PUi1BNUo… acc_tcga_gistic  TCGA-OR… TCGA-OR-… acc_tc…
##  7 VENHQS1PUi1BNU… VENHQS1PUi1BNUo… acc_tcga_gistic  TCGA-OR… TCGA-OR-… acc_tc…
##  8 VENHQS1PUi1BNU… VENHQS1PUi1BNUo… acc_tcga_gistic  TCGA-OR… TCGA-OR-… acc_tc…
##  9 VENHQS1PUi1BNU… VENHQS1PUi1BNUo… acc_tcga_gistic  TCGA-OR… TCGA-OR-… acc_tc…
## 10 VENHQS1PUi1BNU… VENHQS1PUi1BNUp… acc_tcga_gistic  TCGA-OR… TCGA-OR-… acc_tc…
## # … with 174 more rows, and 1 more variable: profiled <lgl>

getDataByGenePanel

getDataByGenePanel(cbio, "acc_tcga", genePanelId = "IMPACT341",
    molecularProfileId = "acc_tcga_rppa", sampleListId = "acc_tcga_rppa")

## $acc_tcga_rppa
## # A tibble: 2,622 x 9
##    uniqueSampleKey uniquePatientKey entrezGeneId molecularProfil… sampleId
##    <chr>           <chr>                   <int> <chr>            <chr>   
##  1 VENHQS1PUi1BNU… VENHQS1PUi1BNUo…          207 acc_tcga_rppa    TCGA-OR…
##  2 VENHQS1PUi1BNU… VENHQS1PUi1BNUo…          208 acc_tcga_rppa    TCGA-OR…
##  3 VENHQS1PUi1BNU… VENHQS1PUi1BNUo…        10000 acc_tcga_rppa    TCGA-OR…
##  4 VENHQS1PUi1BNU… VENHQS1PUi1BNUo…          367 acc_tcga_rppa    TCGA-OR…
##  5 VENHQS1PUi1BNU… VENHQS1PUi1BNUo…          472 acc_tcga_rppa    TCGA-OR…
##  6 VENHQS1PUi1BNU… VENHQS1PUi1BNUo…         8314 acc_tcga_rppa    TCGA-OR…
##  7 VENHQS1PUi1BNU… VENHQS1PUi1BNUo…          596 acc_tcga_rppa    TCGA-OR…
##  8 VENHQS1PUi1BNU… VENHQS1PUi1BNUo…          598 acc_tcga_rppa    TCGA-OR…
##  9 VENHQS1PUi1BNU… VENHQS1PUi1BNUo…        10018 acc_tcga_rppa    TCGA-OR…
## 10 VENHQS1PUi1BNU… VENHQS1PUi1BNUo…          673 acc_tcga_rppa    TCGA-OR…
## # … with 2,612 more rows, and 4 more variables: patientId <chr>, studyId <chr>,
## #   value <dbl>, hugoGeneSymbol <chr>
…
This returns a CharacterList of all identifiers for each sample list identifier input:

samplesInSampleLists(cbio, c("acc_tcga_cna", "acc_tcga_cnaseq"))

## CharacterList of length 2
## [["acc_tcga_cna"]] TCGA-OR-A5J1-01 TCGA-OR-A5J2-01 ... TCGA-PK-A5HC-01
## [["acc_tcga_cnaseq"]] TCGA-OR-A5J1-01 TCGA-OR-A5J2-01 ... TCGA-PK-A5HC-01

All samples within a study ID

allSamples(cbio, "acc_tcga")

## # A tibble: 92 x 6
##    uniqueSampleKey    uniquePatientKey   sampleType  sampleId  patientId studyId
##    <chr>              <chr>              <chr>       <chr>     <chr>     <chr>  
##  1 VENHQS1PUi1BNUoxL… VENHQS1PUi1BNUoxO… Primary So… TCGA-OR-… TCGA-OR-… acc_tc…
##  2 VENHQS1PUi1BNUoyL… VENHQS1PUi1BNUoyO… Primary So… TCGA-OR-… TCGA-OR-… acc_tc…
##  3 VENHQS1PUi1BNUozL… VENHQS1PUi1BNUozO… Primary So… TCGA-OR-… TCGA-OR-… acc_tc…
##  4 VENHQS1PUi1BNUo0L… VENHQS1PUi1BNUo0O… Primary So… TCGA-OR-… TCGA-OR-… acc_tc…
##  5 VENHQS1PUi1BNUo1L… VENHQS1PUi1BNUo1O… Primary So… TCGA-OR-… TCGA-OR-… acc_tc…
##  6 VENHQS1PUi1BNUo2L… VENHQS1PUi1BNUo2O… Primary So… TCGA-OR-… TCGA-OR-… acc_tc…
##  7 VENHQS1PUi1BNUo3L… VENHQS1PUi1BNUo3O… Primary So… TCGA-OR-… TCGA-OR-… acc_tc…
##  8 VENHQS1PUi1BNUo4L… VENHQS1PUi1BNUo4O… Primary So… TCGA-OR-… TCGA-OR-… acc_tc…
##  9 VENHQS1PUi1BNUo5L… VENHQS1PUi1BNUo5O… Primary So… TCGA-OR-… TCGA-OR-… acc_tc…
## 10 VENHQS1PUi1BNUpBL… VENHQS1PUi1BNUpBO… Primary So… TCGA-OR-… TCGA-OR-… acc_tc…
## # … with 82 more rows

Info on Samples

getSampleInfo(cbio, studyId = "acc_tcga",
    sampleListIds = c("acc_tcga_rppa", "acc_tcga_gistic"))

## # A tibble: 46 x 6
##    uniqueSampleKey    uniquePatientKey   sampleType  sampleId  patientId studyId
##    <chr>              <chr>              <chr>       <chr>     <chr>     <chr>  
##  1 VENHQS1PUi1BNUoyL… VENHQS1PUi1BNUoyO… Primary So… TCGA-OR-… TCGA-OR-… acc_tc…
##  2 VENHQS1PUi1BNUozL… VENHQS1PUi1BNUozO… Primary So… TCGA-OR-… TCGA-OR-… acc_tc…
##  3 VENHQS1PUi1BNUo2L… VENHQS1PUi1BNUo2O… Primary So… TCGA-OR-… TCGA-OR-… acc_tc…
##  4 VENHQS1PUi1BNUo3L… VENHQS1PUi1BNUo3O… Primary So… TCGA-OR-… TCGA-OR-… acc_tc…
##  5 VENHQS1PUi1BNUo4L… VENHQS1PUi1BNUo4O… Primary So… TCGA-OR-… TCGA-OR-… acc_tc…
##  6 VENHQS1PUi1BNUo5L… VENHQS1PUi1BNUo5O… Primary So… TCGA-OR-… TCGA-OR-… acc_tc…
##  7 VENHQS1PUi1BNUpBL… VENHQS1PUi1BNUpBO… Primary So… TCGA-OR-… TCGA-OR-… acc_tc…
##  8 VENHQS1PUi1BNUpQL… VENHQS1PUi1BNUpQO… Primary So… TCGA-OR-… TCGA-OR-… acc_tc…
##  9 VENHQS1PUi1BNUpSL… VENHQS1PUi1BNUpSO… Primary So… TCGA-OR-… TCGA-OR-… acc_tc…
## 10 VENHQS1PUi1BNUpTL… VENHQS1PUi1BNUpTO… Primary So… TCGA-OR-… TCGA-OR-… acc_tc…
## # … with 36 more rows
…
