cBioPortalData: User Guide • cBioPortalData
…
metadata

You may notice that the metadata() may have some
additional data that was not able to be integrated in the
MultiAssayExperiment.

metadata(acc)

## [[1]]
## # A tibble: 30,510 × 6
##    uniqueSampleKey    uniquePatientKey entrezGeneId molecularProfileId patientId
##    <chr>              <chr>                   <int> <chr>              <chr>    
##  1 VENHQS1PUi1BNUoxL… VENHQS1PUi1BNUo…           25 acc_tcga_linear_C… TCGA-OR-…
##  2 VENHQS1PUi1BNUoxL… VENHQS1PUi1BNUo…          142 acc_tcga_linear_C… TCGA-OR-…
##  3 VENHQS1PUi1BNUoxL… VENHQS1PUi1BNUo…          207 acc_tcga_linear_C… TCGA-OR-…
##  4 VENHQS1PUi1BNUoxL… VENHQS1PUi1BNUo…          208 acc_tcga_linear_C… TCGA-OR-…
##  5 VENHQS1PUi1BNUoxL… VENHQS1PUi1BNUo…          238 acc_tcga_linear_C… TCGA-OR-…
##  6 VENHQS1PUi1BNUoxL… VENHQS1PUi1BNUo…          242 acc_tcga_linear_C… TCGA-OR-…
##  7 VENHQS1PUi1BNUoxL… VENHQS1PUi1BNUo…          324 acc_tcga_linear_C… TCGA-OR-…
##  8 VENHQS1PUi1BNUoxL… VENHQS1PUi1BNUo…          331 acc_tcga_linear_C… TCGA-OR-…
##  9 VENHQS1PUi1BNUoxL… VENHQS1PUi1BNUo…          367 acc_tcga_linear_C… TCGA-OR-…
## 10 VENHQS1PUi1BNUoxL… VENHQS1PUi1BNUo…          369 acc_tcga_linear_C… TCGA-OR-…
## # ℹ 30,500 more rows
## # ℹ 1 more variable: studyId <chr>
## 
## [[2]]
## # A tibble: 2,622 × 6
##    uniqueSampleKey    uniquePatientKey entrezGeneId molecularProfileId patientId
##    <chr>              <chr>                   <int> <chr>              <chr>    
##  1 VENHQS1PUi1BNUoyL… VENHQS1PUi1BNUo…          207 acc_tcga_rppa      TCGA-OR-…
##  2 VENHQS1PUi1BNUoyL… VENHQS1PUi1BNUo…          208 acc_tcga_rppa      TCGA-OR-…
##  3 VENHQS1PUi1BNUoyL… VENHQS1PUi1BNUo…          367 acc_tcga_rppa      TCGA-OR-…
##  4 VENHQS1PUi1BNUoyL… VENHQS1PUi1BNUo…          472 acc_tcga_rppa      TCGA-OR-…
##  5 VENHQS1PUi1BNUoyL… VENHQS1PUi1BNUo…          595 acc_tcga_rppa      TCGA-OR-…
##  6 VENHQS1PUi1BNUoyL… VENHQS1PUi1BNUo…          596 acc_tcga_rppa      TCGA-OR-…
##  7 VENHQS1PUi1BNUoyL… VENHQS1PUi1BNUo…          598 acc_tcga_rppa      TCGA-OR-…
##  8 VENHQS1PUi1BNUoyL… VENHQS1PUi1BNUo…          673 acc_tcga_rppa      TCGA-OR-…
##  9 VENHQS1PUi1BNUoyL… VENHQS1PUi1BNUo…          675 acc_tcga_rppa      TCGA-OR-…
## 10 VENHQS1PUi1BNUoyL… VENHQS1PUi1BNUo…          898 acc_tcga_rppa      TCGA-OR-…
## # ℹ 2,612 more rows
## # ℹ 1 more variable: studyId <chr>
…
