cgdsr Migration • cBioPortalData
…
cbio <- cBioPortal(
    hostname = "www.cbioportal.org",
    protocol = "https",
    api. = "/api/api-docs"
)

## Warning in .service_validate_md5sum(api_reference_url, api_reference_md5sum, : service version differs from validated version
##     service url: https://www.cbioportal.org/api/api-docs
##     observed md5sum: 456be3b7a6b5871a1b41f1233ecbae85
##     expected md5sum: 1615443badbeaada68463859c34f15f8

getStudies(cbio)

## # A tibble: 342 × 13
##    name          description publicStudy groups status importDate allSampleCount
##    <chr>         <chr>       <lgl>       <chr>   <int> <chr>               <int>
##  1 Adrenocortic… "TCGA Adre… TRUE        "PUBL…      0 2022-03-0…             92
##  2 Bladder Canc… "Whole exo… TRUE        ""          0 2022-03-0…             34
##  3 Basal Cell C… "Whole-exo… TRUE        "PUBL…      0 2022-03-0…            293
##  4 Acute Lympho… "Comprehen… TRUE        "PUBL…      0 2022-03-0…             93
##  5 Ampullary Ca… "Exome seq… TRUE        "PUBL…      0 2022-03-0…            160
##  6 Bladder Urot… "Whole exo… TRUE        "PUBL…      0 2022-03-0…             50
##  7 Bladder Canc… "Comprehen… TRUE        "PUBL…      0 2022-03-0…             97
##  8 Bladder Urot… "Whole-exo… TRUE        "PUBL…      0 2022-03-0…             99
##  9 Bladder Canc… "Genomic P… TRUE        "PUBL…      0 2022-03-0…            109
## 10 Hypodiploid … "Whole gen… TRUE        ""          0 2022-03-0…             44
## # … with 332 more rows, and 6 more variables: readPermission <lgl>,
## #   studyId <chr>, cancerTypeId <chr>, referenceGenome <chr>, pmid <chr>,
## #   citation <chr>
…
clist1 <- sampleLists(cbio, "gbm_tcga_pub")[1, "sampleListId", drop = TRUE]
clist1

## [1] "gbm_tcga_pub_all"

Note that a sample list ID is not required when using the
fetchAllClinicalDataInStudyUsingPOST internal endpoint.
Data for all patients can be obtained using the
clinicalData function.

clinicalData(cbio, "gbm_tcga_pub")

## # A tibble: 206 × 24
##    patientId    DFS_MONTHS  DFS_STATUS KARNOFSKY_PERFORMANC… OS_MONTHS OS_STATUS
##    <chr>        <chr>       <chr>      <chr>                 <chr>     <chr>    
##  1 TCGA-02-0001 4.504109589 1:Recurred 80.0                  11.60547… 1:DECEAS…
##  2 TCGA-02-0003 1.315068493 1:Recurred 100.0                 4.734246… 1:DECEAS…
##  3 TCGA-02-0004 10.32328767 1:Recurred 80.0                  11.34246… 1:DECEAS…
##  4 TCGA-02-0006 9.928767123 1:Recurred 80.0                  18.34520… 1:DECEAS…
##  5 TCGA-02-0007 17.03013699 1:Recurred 80.0                  23.17808… 1:DECEAS…
##  6 TCGA-02-0009 8.679452055 1:Recurred 80.0                  10.58630… 1:DECEAS…
##  7 TCGA-02-0010 11.53972603 1:Recurred 80.0                  35.40821… 1:DECEAS…
##  8 TCGA-02-0011 4.734246575 1:Recurred 80.0                  20.71232… 1:DECEAS…
##  9 TCGA-02-0014 NA          NA         100.0                 82.55342… 1:DECEAS…
## 10 TCGA-02-0015 14.99178082 1:Recurred 80.0                  20.61369… 1:DECEAS…
## # … with 196 more rows, and 18 more variables: PRETREATMENT_HISTORY <chr>,
## #   PRIOR_GLIOMA <chr>, SAMPLE_COUNT <chr>, SEX <chr>, sampleId <chr>,
## #   ACGH_DATA <chr>, CANCER_TYPE <chr>, CANCER_TYPE_DETAILED <chr>,
## #   COMPLETE_DATA <chr>, FRACTION_GENOME_ALTERED <chr>, MRNA_DATA <chr>,
## #   MUTATION_COUNT <chr>, ONCOTREE_CODE <chr>, SAMPLE_TYPE <chr>,
## #   SEQUENCED <chr>, SOMATIC_STATUS <chr>, TMB_NONSYNONYMOUS <chr>,
## #   TREATMENT_STATUS <chr>
…
entrez <- genetab[["entrezGeneId"]]

allsamps <- samplesInSampleLists(cbio, "gbm_tcga_pub_all")

molecularData(cbio, "gbm_tcga_pub_mrna",
    entrezGeneIds = entrez, sampleIds = unlist(allsamps))

## $gbm_tcga_pub_mrna
## # A tibble: 618 × 8
##    uniqueSampleKey       uniquePatientKey entrezGeneId molecularProfil… sampleId
##    <chr>                 <chr>                   <int> <chr>            <chr>   
##  1 VENHQS0wMi0wMDAxLTAx… VENHQS0wMi0wMDA…           25 gbm_tcga_pub_mr… TCGA-02…
##  2 VENHQS0wMi0wMDAxLTAx… VENHQS0wMi0wMDA…         4763 gbm_tcga_pub_mr… TCGA-02…
##  3 VENHQS0wMi0wMDAxLTAx… VENHQS0wMi0wMDA…         7157 gbm_tcga_pub_mr… TCGA-02…
##  4 VENHQS0wMi0wMDAzLTAx… VENHQS0wMi0wMDA…           25 gbm_tcga_pub_mr… TCGA-02…
##  5 VENHQS0wMi0wMDAzLTAx… VENHQS0wMi0wMDA…         4763 gbm_tcga_pub_mr… TCGA-02…
##  6 VENHQS0wMi0wMDAzLTAx… VENHQS0wMi0wMDA…         7157 gbm_tcga_pub_mr… TCGA-02…
##  7 VENHQS0wMi0wMDA0LTAx… VENHQS0wMi0wMDA…           25 gbm_tcga_pub_mr… TCGA-02…
##  8 VENHQS0wMi0wMDA0LTAx… VENHQS0wMi0wMDA…         4763 gbm_tcga_pub_mr… TCGA-02…
##  9 VENHQS0wMi0wMDA0LTAx… VENHQS0wMi0wMDA…         7157 gbm_tcga_pub_mr… TCGA-02…
## 10 VENHQS0wMi0wMDA2LTAx… VENHQS0wMi0wMDA…           25 gbm_tcga_pub_mr… TCGA-02…
## # … with 608 more rows, and 3 more variables: patientId <chr>, studyId <chr>,
## #   value <dbl>

Note that this can also be done by using the
getDataByGenes function, which automatically figures out
all the sample identifiers in the study:

getDataByGenes(
    api =  cbio,
    studyId = "gbm_tcga_pub",
    genes = c("NF1", "TP53", "ABL1"),
    by = "hugoGeneSymbol",
    molecularProfileIds = "gbm_tcga_pub_mrna"
)

## $gbm_tcga_pub_mrna
## # A tibble: 618 × 10
##    uniqueSampleKey       uniquePatientKey entrezGeneId molecularProfil… sampleId
##    <chr>                 <chr>                   <int> <chr>            <chr>   
##  1 VENHQS0wMi0wMDAxLTAx… VENHQS0wMi0wMDA…           25 gbm_tcga_pub_mr… TCGA-02…
##  2 VENHQS0wMi0wMDAxLTAx… VENHQS0wMi0wMDA…         4763 gbm_tcga_pub_mr… TCGA-02…
##  3 VENHQS0wMi0wMDAxLTAx… VENHQS0wMi0wMDA…         7157 gbm_tcga_pub_mr… TCGA-02…
##  4 VENHQS0wMi0wMDAzLTAx… VENHQS0wMi0wMDA…           25 gbm_tcga_pub_mr… TCGA-02…
##  5 VENHQS0wMi0wMDAzLTAx… VENHQS0wMi0wMDA…         4763 gbm_tcga_pub_mr… TCGA-02…
##  6 VENHQS0wMi0wMDAzLTAx… VENHQS0wMi0wMDA…         7157 gbm_tcga_pub_mr… TCGA-02…
##  7 VENHQS0wMi0wMDA0LTAx… VENHQS0wMi0wMDA…           25 gbm_tcga_pub_mr… TCGA-02…
##  8 VENHQS0wMi0wMDA0LTAx… VENHQS0wMi0wMDA…         4763 gbm_tcga_pub_mr… TCGA-02…
##  9 VENHQS0wMi0wMDA0LTAx… VENHQS0wMi0wMDA…         7157 gbm_tcga_pub_mr… TCGA-02…
## 10 VENHQS0wMi0wMDA2LTAx… VENHQS0wMi0wMDA…           25 gbm_tcga_pub_mr… TCGA-02…
## # … with 608 more rows, and 5 more variables: patientId <chr>, studyId <chr>,
## #   value <dbl>, hugoGeneSymbol <chr>, type <chr>
…
cBioPortalData

Similar to molecularData, mutation data can be obtained
with the mutationData function or the
getDataByGenes function.

mutationData(
    api = cbio,
    molecularProfileIds = "gbm_tcga_pub_mutations",
    entrezGeneIds = entrez,
    sampleIds = unlist(allsamps)
)

## $gbm_tcga_pub_mutations
## # A tibble: 57 × 28
##    uniqueSampleKey          uniquePatientKey molecularProfil… sampleId patientId
##    <chr>                    <chr>            <chr>            <chr>    <chr>    
##  1 VENHQS0wMi0wMDAxLTAxOmd… VENHQS0wMi0wMDA… gbm_tcga_pub_mu… TCGA-02… TCGA-02-…
##  2 VENHQS0wMi0wMDAxLTAxOmd… VENHQS0wMi0wMDA… gbm_tcga_pub_mu… TCGA-02… TCGA-02-…
##  3 VENHQS0wMi0wMDAzLTAxOmd… VENHQS0wMi0wMDA… gbm_tcga_pub_mu… TCGA-02… TCGA-02-…
##  4 VENHQS0wMi0wMDAzLTAxOmd… VENHQS0wMi0wMDA… gbm_tcga_pub_mu… TCGA-02… TCGA-02-…
##  5 VENHQS0wMi0wMDEwLTAxOmd… VENHQS0wMi0wMDE… gbm_tcga_pub_mu… TCGA-02… TCGA-02-…
##  6 VENHQS0wMi0wMDEwLTAxOmd… VENHQS0wMi0wMDE… gbm_tcga_pub_mu… TCGA-02… TCGA-02-…
##  7 VENHQS0wMi0wMDEwLTAxOmd… VENHQS0wMi0wMDE… gbm_tcga_pub_mu… TCGA-02… TCGA-02-…
##  8 VENHQS0wMi0wMDExLTAxOmd… VENHQS0wMi0wMDE… gbm_tcga_pub_mu… TCGA-02… TCGA-02-…
##  9 VENHQS0wMi0wMDE0LTAxOmd… VENHQS0wMi0wMDE… gbm_tcga_pub_mu… TCGA-02… TCGA-02-…
## 10 VENHQS0wMi0wMDI0LTAxOmd… VENHQS0wMi0wMDI… gbm_tcga_pub_mu… TCGA-02… TCGA-02-…
## # … with 47 more rows, and 23 more variables: entrezGeneId <int>,
## #   studyId <chr>, center <chr>, mutationStatus <chr>, validationStatus <chr>,
## #   startPosition <int>, endPosition <int>, referenceAllele <chr>,
## #   proteinChange <chr>, mutationType <chr>, functionalImpactScore <chr>,
## #   fisValue <dbl>, linkXvar <chr>, linkPdb <chr>, linkMsa <chr>,
## #   ncbiBuild <chr>, variantType <chr>, keyword <chr>, chr <chr>,
## #   variantAllele <chr>, refseqMrnaId <chr>, proteinPosStart <int>, …

getDataByGenes(
    api = cbio,
    studyId = "gbm_tcga_pub",
    genes = c("NF1", "TP53", "ABL1"),
    by = "hugoGeneSymbol",
    molecularProfileIds = "gbm_tcga_pub_mutations"
)

## $gbm_tcga_pub_mutations
## # A tibble: 57 × 30
##    uniqueSampleKey          uniquePatientKey molecularProfil… sampleId patientId
##    <chr>                    <chr>            <chr>            <chr>    <chr>    
##  1 VENHQS0wMi0wMDAxLTAxOmd… VENHQS0wMi0wMDA… gbm_tcga_pub_mu… TCGA-02… TCGA-02-…
##  2 VENHQS0wMi0wMDAxLTAxOmd… VENHQS0wMi0wMDA… gbm_tcga_pub_mu… TCGA-02… TCGA-02-…
##  3 VENHQS0wMi0wMDAzLTAxOmd… VENHQS0wMi0wMDA… gbm_tcga_pub_mu… TCGA-02… TCGA-02-…
##  4 VENHQS0wMi0wMDAzLTAxOmd… VENHQS0wMi0wMDA… gbm_tcga_pub_mu… TCGA-02… TCGA-02-…
##  5 VENHQS0wMi0wMDEwLTAxOmd… VENHQS0wMi0wMDE… gbm_tcga_pub_mu… TCGA-02… TCGA-02-…
##  6 VENHQS0wMi0wMDEwLTAxOmd… VENHQS0wMi0wMDE… gbm_tcga_pub_mu… TCGA-02… TCGA-02-…
##  7 VENHQS0wMi0wMDEwLTAxOmd… VENHQS0wMi0wMDE… gbm_tcga_pub_mu… TCGA-02… TCGA-02-…
##  8 VENHQS0wMi0wMDExLTAxOmd… VENHQS0wMi0wMDE… gbm_tcga_pub_mu… TCGA-02… TCGA-02-…
##  9 VENHQS0wMi0wMDE0LTAxOmd… VENHQS0wMi0wMDE… gbm_tcga_pub_mu… TCGA-02… TCGA-02-…
## 10 VENHQS0wMi0wMDI0LTAxOmd… VENHQS0wMi0wMDI… gbm_tcga_pub_mu… TCGA-02… TCGA-02-…
## # … with 47 more rows, and 25 more variables: entrezGeneId <int>,
## #   studyId <chr>, center <chr>, mutationStatus <chr>, validationStatus <chr>,
## #   startPosition <int>, endPosition <int>, referenceAllele <chr>,
## #   proteinChange <chr>, mutationType <chr>, functionalImpactScore <chr>,
## #   fisValue <dbl>, linkXvar <chr>, linkPdb <chr>, linkMsa <chr>,
## #   ncbiBuild <chr>, variantType <chr>, keyword <chr>, chr <chr>,
## #   variantAllele <chr>, refseqMrnaId <chr>, proteinPosStart <int>, …
…
